<svg xmlns="http://www.w3.org/2000/svg" viewBox="0 0 180 38">
  <g id="Page-1" fill="none" fill-rule="evenodd">
    <g id="mobile" stroke="#1C95EA" stroke-width="1.5" transform="translate(-26 -981)">
      <g id="mod-top-asset" transform="translate(8 647)">
        <g id="Group-3">
          <path id="Line-Copy-6" d="M18.787 359.686L54.439 335l35.651 36 35.652-11.314 35.652 8.228 35.651-7.2" transform="matrix(-1 0 0 1 215.832 0)"/>
        </g>
      </g>
    </g>
  </g>
</svg>
